waveforms/MatMul.vcd
$date
2025-08-29T09:02+0000
$end
$version
0.2
$end
$comment

$end
$timescale 1ns  $end
$scope module MatMul $end
 $var wire 32 ) io_dataOut $end
 $var wire 32 2 rowA $end
 $var wire 1 < Matrix_1 $end
 $var wire 1 E io_outputValid $end
 $var wire 32 H _GEN_5 $end
 $var wire 32 R _GEN_13 $end
 $var wire 1 u DotProd $end
 $var wire 32 v io_dataInB $end
 $var wire 32 "! _GEN_12 $end
 $var wire 32 "( _GEN_7 $end
 $var wire 32 "* _GEN_15 $end
 $var wire 3 "B setupColIdx $end
 $var wire 1 "F _GEN_1 $end
 $var wire 1 "N inExecutionMode $end
 $var wire 5 "O value $end
 $var wire 32 "R col $end
 $var wire 32 "S _GEN_4 $end
 $var wire 1 "T Matrix $end
 $var wire 1 "X clock $end
 $var wire 5 "_ setupRowIdx $end
 $var wire 32 #$ io_dataInA $end
 $var wire 32 #% _GEN_11 $end
 $var wire 32 #; _GEN_6 $end
 $var wire 32 #< _GEN_14 $end
 $var wire 5 #@ _GEN_0 $end
 $var wire 1 #A debug_myDebugSignal $end
 $var wire 32 #I rowB $end
 $var wire 1 #O reset $end
 $var wire 32 #R _GEN_3 $end
  $scope module Matrix.Vector $end
  $upscope $end
  $scope module Matrix.Vector_2 $end
  $upscope $end
  $scope module Matrix_1.Vector $end
  $upscope $end
  $scope module Matrix_1 $end
   $var wire 1 : io_writeEnable $end
   $var wire 1 ; Vector_2 $end
   $var wire 1 I reset $end
   $var wire 1 X Vector $end
   $var wire 32 ", rows_1_dataOut $end
   $var wire 32 "5 io_dataOut $end
   $var wire 1 "? Vector_1 $end
   $var wire 32 "@ io_colIdx $end
   $var wire 32 "c io_rowIdx $end
   $var wire 32 "d _GEN_7 $end
   $var wire 1 "s clock $end
   $var wire 32 #) rows_0_dataOut $end
   $var wire 32 #S io_dataIn $end
   $var wire 32 #U rows_2_dataOut $end
    $scope module Vector_2 $end
     $var wire 1 " io_writeEnable $end
     $var wire 32 $ _GEN_1 $end
     $var wire 32 - _GEN_18 $end
     $var wire 32 > _GEN_12 $end
     $var wire 1 L reset $end
     $var wire 32 a _GEN_11 $end
     $var wire 32 e _GEN_3 $end
     $var wire 32 f internalVector_1 $end
     $var wire 32 q internalVector_4 $end
     $var wire 32 s _GEN_6 $end
     $var wire 32 "" io_dataIn $end
     $var wire 32 "+ _GEN_9 $end
     $var wire 32 "- io_idx $end
     $var wire 32 "3 _GEN_0 $end
     $var wire 32 "6 _GEN_17 $end
     $var wire 32 "G io_dataOut $end
     $var wire 32 "P internalVector_3 $end
     $var wire 32 "\ _GEN_8 $end
     $var wire 32 "a internalVector_6 $end
     $var wire 32 "l _GEN_2 $end
     $var wire 32 "p _GEN_10 $end
     $var wire 32 "r _GEN_19 $end
     $var wire 1 "u clock $end
     $var wire 32 "y internalVector_0 $end
     $var wire 32 "} _GEN_5 $end
     $var wire 32 #& _GEN_13 $end
     $var wire 32 #7 _GEN_16 $end
     $var wire 32 #V _GEN_4 $end
     $var wire 32 #W internalVector_2 $end
     $var wire 32 #] _GEN_7 $end
     $var wire 32 #f _GEN_15 $end
     $var wire 32 #h internalVector_5 $end
    $upscope $end
    $scope module Vector_1 $end
     $var wire 32 % internalVector_1 $end
     $var wire 1 & clock $end
     $var wire 32 ( _GEN_13 $end
     $var wire 32 6 internalVector_4 $end
     $var wire 32 9 _GEN_16 $end
     $var wire 32 D _GEN_7 $end
     $var wire 32 V io_dataIn $end
     $var wire 32 Y _GEN_1 $end
     $var wire 32 ` _GEN_4 $end
     $var wire 1 r reset $end
     $var wire 32 t internalVector_6 $end
     $var wire 32 w _GEN_18 $end
     $var wire 1 z io_writeEnable $end
     $var wire 32 ") internalVector_0 $end
     $var wire 32 "7 _GEN_12 $end
     $var wire 32 "; _GEN_15 $end
     $var wire 32 "H internalVector_3 $end
     $var wire 32 "Q _GEN_6 $end
     $var wire 32 "^ _GEN_9 $end
     $var wire 32 "b _GEN_0 $end
     $var wire 32 "h _GEN_3 $end
     $var wire 32 "m internalVector_2 $end
     $var wire 32 #! _GEN_17 $end
     $var wire 32 #' internalVector_5 $end
     $var wire 32 #. _GEN_11 $end
     $var wire 32 #5 io_idx $end
     $var wire 32 #? _GEN_2 $end
     $var wire 32 #L io_dataOut $end
     $var wire 32 #Z _GEN_5 $end
     $var wire 32 #^ _GEN_19 $end
     $var wire 32 #` _GEN_8 $end
     $var wire 32 #i _GEN_10 $end
    $upscope $end
    $scope module Vector $end
     $var wire 32 / _GEN_0 $end
     $var wire 32 0 _GEN_9 $end
     $var wire 32 ? io_dataOut $end
     $var wire 32 A _GEN_3 $end
     $var wire 32 J _GEN_6 $end
     $var wire 32 W _GEN_13 $end
     $var wire 32 Z io_idx $end
     $var wire 32 [ internalVector_3 $end
     $var wire 32 _ _GEN_16 $end
     $var wire 32 d io_dataIn $end
     $var wire 32 k internalVector_6 $end
     $var wire 32 m internalVector_0 $end
     $var wire 32 x _GEN_19 $end
     $var wire 1 { clock $end
     $var wire 32 ~ _GEN_10 $end
     $var wire 32 "$ _GEN_5 $end
     $var wire 32 "4 _GEN_8 $end
     $var wire 32 "9 _GEN_2 $end
     $var wire 32 "L _GEN_18 $end
     $var wire 32 "[ _GEN_12 $end
     $var wire 32 "f internalVector_2 $end
     $var wire 32 "j internalVector_5 $end
     $var wire 1 "w reset $end
     $var wire 32 "x _GEN_15 $end
     $var wire 32 #( _GEN_4 $end
     $var wire 32 #+ _GEN_7 $end
     $var wire 32 #B _GEN_1 $end
     $var wire 32 #G internalVector_4 $end
     $var wire 32 #K _GEN_17 $end
     $var wire 32 #\ _GEN_11 $end
     $var wire 1 #a io_writeEnable $end
     $var wire 32 #j internalVector_1 $end
    $upscope $end
  $upscope $end
  $scope module Matrix $end
   $var wire 32 . io_dataIn $end
   $var wire 1 = Vector_1 $end
   $var wire 1 G io_writeEnable $end
   $var wire 1 N reset $end
   $var wire 32 O rows_2_dataOut $end
   $var wire 32 "2 io_colIdx $end
   $var wire 32 "8 _GEN_7 $end
   $var wire 32 "A rows_1_dataOut $end
   $var wire 32 "J io_rowIdx $end
   $var wire 1 "v clock $end
   $var wire 1 #* Vector_2 $end
   $var wire 32 #6 rows_0_dataOut $end
   $var wire 1 #D Vector $end
   $var wire 32 #E io_dataOut $end
    $scope module Vector_2 $end
     $var wire 32 ! _GEN_15 $end
     $var wire 32 8 _GEN_18 $end
     $var wire 32 B internalVector_6 $end
     $var wire 1 S reset $end
     $var wire 32 U _GEN_1 $end
     $var wire 32 ] internalVector_0 $end
     $var wire 32 h internalVector_3 $end
     $var wire 32 j _GEN_4 $end
     $var wire 1 l io_writeEnable $end
     $var wire 32 n _GEN_7 $end
     $var wire 32 y _GEN_11 $end
     $var wire 32 ": _GEN_17 $end
     $var wire 32 "I internalVector_2 $end
     $var wire 32 "M internalVector_5 $end
     $var wire 32 "U _GEN_6 $end
     $var wire 32 "W io_dataIn $end
     $var wire 32 "e _GEN_0 $end
     $var wire 32 "g _GEN_9 $end
     $var wire 32 "i _GEN_3 $end
     $var wire 32 "k _GEN_16 $end
     $var wire 32 "z _GEN_10 $end
     $var wire 32 "| _GEN_19 $end
     $var wire 32 #/ io_idx $end
     $var wire 32 #4 _GEN_13 $end
     $var wire 32 #= internalVector_1 $end
     $var wire 32 #C _GEN_2 $end
     $var wire 1 #J clock $end
     $var wire 32 #N _GEN_5 $end
     $var wire 32 #Y internalVector_4 $end
     $var wire 32 #c _GEN_12 $end
     $var wire 32 #g io_dataOut $end
     $var wire 32 #k _GEN_8 $end
    $upscope $end
    $scope module Vector_1 $end
     $var wire 32 # _GEN_10 $end
     $var wire 32 * _GEN_19 $end
     $var wire 32 + internalVector_3 $end
     $var wire 32 3 _GEN_13 $end
     $var wire 32 7 _GEN_5 $end
     $var wire 1 @ clock $end
     $var wire 32 K _GEN_8 $end
     $var wire 32 M _GEN_16 $end
     $var wire 32 T io_dataOut $end
     $var wire 32 \ _GEN_2 $end
     $var wire 32 ^ internalVector_2 $end
     $var wire 32 g internalVector_5 $end
     $var wire 32 | _GEN_15 $end
     $var wire 32 "' _GEN_18 $end
     $var wire 32 ". _GEN_1 $end
     $var wire 32 "< _GEN_4 $end
     $var wire 32 "> _GEN_12 $end
     $var wire 32 "D io_dataIn $end
     $var wire 32 "V _GEN_7 $end
     $var wire 1 "Y reset $end
     $var wire 32 "] internalVector_1 $end
     $var wire 1 "n io_writeEnable $end
     $var wire 32 "o internalVector_4 $end
     $var wire 32 #0 _GEN_0 $end
     $var wire 32 #2 _GEN_9 $end
     $var wire 32 #9 _GEN_17 $end
     $var wire 32 #F _GEN_11 $end
     $var wire 32 #H _GEN_3 $end
     $var wire 32 #M internalVector_6 $end
     $var wire 32 #X _GEN_6 $end
     $var wire 32 #_ io_idx $end
     $var wire 32 #d internalVector_0 $end
    $upscope $end
    $scope module Vector $end
     $var wire 32 , _GEN_11 $end
     $var wire 32 1 _GEN_2 $end
     $var wire 32 4 _GEN_5 $end
     $var wire 32 C _GEN_17 $end
     $var wire 32 P internalVector_4 $end
     $var wire 32 Q _GEN_8 $end
     $var wire 1 b reset $end
     $var wire 32 c internalVector_1 $end
     $var wire 32 o _GEN_16 $end
     $var wire 32 } _GEN_7 $end
     $var wire 32 "# io_dataIn $end
     $var wire 32 "& _GEN_1 $end
     $var wire 1 "/ io_writeEnable $end
     $var wire 32 "0 _GEN_10 $end
     $var wire 32 "1 _GEN_19 $end
     $var wire 32 "= _GEN_13 $end
     $var wire 32 "C internalVector_0 $end
     $var wire 32 "E _GEN_4 $end
     $var wire 32 "K internalVector_3 $end
     $var wire 32 "Z internalVector_6 $end
     $var wire 32 "q _GEN_3 $end
     $var wire 32 "{ io_dataOut $end
     $var wire 32 #" _GEN_15 $end
     $var wire 32 ## _GEN_6 $end
     $var wire 32 #, _GEN_0 $end
     $var wire 32 #3 _GEN_18 $end
     $var wire 32 #: _GEN_9 $end
     $var wire 32 #> _GEN_12 $end
     $var wire 32 #T internalVector_2 $end
     $var wire 32 #[ io_idx $end
     $var wire 32 #b internalVector_5 $end
     $var wire 1 #e clock $end
    $upscope $end
  $upscope $end
  $scope module Matrix_1.Vector_1 $end
  $upscope $end
  $scope module DotProd $end
   $var wire 32 ' io_dataInA $end
   $var wire 1 5 reset $end
   $var wire 64 F _GEN_2 $end
   $var wire 64 i nextSum $end
   $var wire 32 p io_dataOut $end
   $var wire 32 "% accumulator $end
   $var wire 64 "` product $end
   $var wire 32 "t io_dataInB $end
   $var wire 3 "~ value $end
   $var wire 1 #- io_outputValid $end
   $var wire 1 #1 clock $end
   $var wire 64 #8 _GEN_3 $end
   $var wire 1 #P wrap $end
   $var wire 3 #Q _GEN_0 $end
  $upscope $end
  $scope module Matrix.Vector_1 $end
  $upscope $end
  $scope module Matrix_1.Vector_2 $end
  $upscope $end
$upscope $end
$enddefinitions $end
$dumpvars
0#D
0=
b00000000000000000000000000000000 #h
b00000000000000000000000000000000 #K
b00000000000000000000000000000000 "U
b00000000000000000000000000000000 #6
b00000000000000000000000000000000 "j
b00000000000000000000000000000000 #.
0#1
b00000000000000000000000000000000 "#
b00000000000000000000000000000000 "8
b00000000000000000000000000000000 "M
0"v
b00000000000000000000000000000000 "I
b00000000000000000000000000000000 "4
b00000000000000000000000000000000 Q
b00000000000000000000000000000000 w
0L
b00000000000000000000000000000000 0
b00000000000000000000000000000000 #Z
b00000000000000000000000000000000 "y
b00000000000000000000000000000000 "\
b00000000000000000000000000000000 "G
b00000000000000000000000000000000 #(
b00000000000000000000000000000000 #=
b00000000000000000000000000000000 "*
0z
0#O
0"n
b00000000000000000000000000000000 s
0r
0@
b00000000000000000000000000000000 A
b00000000000000000000000000000000 #V
b00000000000000000000000000000000 #k
b00000000000000000000000000000000 $
b00000000000000000000000000000000 #9
b00000000000000000000000000000000 #$
b00000000000000000000000000000000 "C
b00000000000000000000000000000000 "&
b00000000000000000000000000000000 q
b00000000000000000000000000000000 T
b00000000000000000000000000000000 ?
b00000000000000000000000000000000 #i
0l
0#A
b00000000000000000000000000000000 m
b00000000000000000000000000000000 e
b00000000000000000000000000000000 P
0:
b00000000000000000000000000000000 3
b00000000000000000000000000000000 #H
b00000000000000000000000000000000 "g
b00000000000000000000000000000000 "5
0"?
b00000000000000000000000000000000 /
b00000000000000000000000000000000 "c
b00000000000000000000000000000000 "1
b00000000000000000000000000000000 #j
b0000000000000000000000000000000000000000000000000000000000000000 "`
0#P
b00000000000000000000000000000000 "W
b00000000000000000000000000000000 t
b00000000000000000000000000000000 _
b00000000000000000000000000000000 "%
b00000000000000000000000000000000 B
b00000000000000000000000000000000 -
b00000000000000000000000000000000 #W
0;
b00000000000000000000000000000000 #f
b000 "B
0#a
b00000000000000000000000000000000 "S
b00000000000000000000000000000000 p
b00000000000000000000000000000000 [
0"N
b00000000000000000000000000000000 "6
b00000000000000000000000000000000 "!
b00000000000000000000000000000000 >
b00000000000000000000000000000000 #4
b00000000000000000000000000000000 !
0N
b00000000000000000000000000000000 2
b00000000000000000000000000000000 #G
b00000000000000000000000000000000 "Q
b00000000000000000000000000000000 #2
b00000000000000000000000000000000 "f
b00000000000000000000000000000000 .
b00000000000000000000000000000000 #X
b00000000000000000000000000000000 #C
b00000000000000000000000000000000 "b
b00000000000000000000000000000000 #&
b00000000000000000000000000000000 "0
b00000000000000000000000000000000 M
b00000000000000000000000000000000 "E
b00000000000000000000000000000000 "(
b00000000000000000000000000000000 #?
b00000000000000000000000000000000 "^
0"Y
b00000000000000000000000000000000 #"
b00000000000000000000000000000000 ",
b00000000000000000000000000000000 ^
b00000000000000000000000000000000 "A
b00000000000000000000000000000000 "$
b00000000000000000000000000000000 ,
b00000000000000000000000000000000 o
0<
b00000000000000000000000000000000 #g
b00000000000000000000000000000000 "q
b00000000000000000000000000000000 #R
b00000000000000000000000000000000 "i
b00000000000000000000000000000000 #5
b00000000000000000000000000000000 "7
b00000000000000000000000000000000 ""
0#*
b00000000000000000000000000000000 #c
b00000000000000000000000000000000 #N
b00000000000000000000000000000000 "m
b00000000000000000000000000000000 #F
b00000000000000000000000000000000 "P
b00000000000000000000000000000000 "e
b00000000000000000000000000000000 "3
b00000000000000000000000000000000 ~
b00000000000000000000000000000000 a
0"X
b00000000000000000000000000000000 ]
0G
b00000000000000000000000000000000 H
b00000000000000000000000000000000 +
b00000000000000000000000000000000 "t
b00000000000000000000000000000000 #U
b00000000000000000000000000000000 ##
b00000000000000000000000000000000 n
0X
b00000000000000000000000000000000 Y
0#-
b00000000000000000000000000000000 '
b00000000000000000000000000000000 "p
0&
b00000000000000000000000000000000 ">
b0000000000000000000000000000000000000000000000000000000000000000 i
b000 #Q
b00000000000000000000000000000000 "d
b00000000000000000000000000000000 #E
b00000000000000000000000000000000 "2
b00000000000000000000000000000000 O
b00000000000000000000000000000000 #d
b00000000000000000000000000000000 }
b00000000000000000000000000000000 h
0"F
b00000000000000000000000000000000 ".
b00000000000000000000000000000000 K
b00000000000000000000000000000000 6
05
b00000000000000000000000000000000 #`
b00000000000000000000000000000000 `
b0000000000000000000000000000000000000000000000000000000000000000 F
b00000000000000000000000000000000 #T
b00000000000000000000000000000000 "o
b00000 #@
b00000 "_
b00000000000000000000000000000000 #3
b00000000000000000000000000000000 "=
b00000000000000000000000000000000 Z
b00000000000000000000000000000000 "R
b00000000000000000000000000000000 (
b00000000000000000000000000000000 #L
b00000000000000000000000000000000 "k
b0000000000000000000000000000000000000000000000000000000000000000 #8
b00000000000000000000000000000000 #/
b00000000000000000000000000000000 "9
b00000000000000000000000000000000 V
b00000000000000000000000000000000 k
b00000000000000000000000000000000 9
0"w
0{
b00000000000000000000000000000000 |
0I
b00000000000000000000000000000000 J
b00000000000000000000000000000000 #_
b00000000000000000000000000000000 #B
b00000000000000000000000000000000 "a
b00000000000000000000000000000000 "L
b00000000000000000000000000000000 #%
b00000000000000000000000000000000 "D
0b
b000 "~
0E
b00000000000000000000000000000000 #[
b00000000000000000000000000000000 "z
b00000000000000000000000000000000 )
b00000000000000000000000000000000 #S
0"u
b00000000000000000000000000000000 #)
b00000000000000000000000000000000 "]
b00000000000000000000000000000000 #>
b00000000000000000000000000000000 #!
b00000000000000000000000000000000 "+
b00000000000000000000000000000000 "r
b00000000000000000000000000000000 "H
b00000000000000000000000000000000 "@
0u
0#J
0"T
b00000000000000000000000000000000 "<
b00000000000000000000000000000000 "'
b00000000000000000000000000000000 D
b00000000000000000000000000000000 j
b00000000000000000000000000000000 U
b00000000000000000000000000000000 8
b00000000000000000000000000000000 #
b00000000000000000000000000000000 #M
b00000000000000000000000000000000 "l
b00000000000000000000000000000000 #b
0"
b00000000000000000000000000000000 #0
b00000000000000000000000000000000 ":
b00000000000000000000000000000000 f
0"/
b00000000000000000000000000000000 4
b00000000000000000000000000000000 #^
b00000000000000000000000000000000 #I
b00000000000000000000000000000000 "}
b00000000000000000000000000000000 "h
b00000000000000000000000000000000 #,
b00000000000000000000000000000000 "K
b00000000000000000000000000000000 y
b00000000000000000000000000000000 d
b00000000000000000000000000000000 \
b00000000000000000000000000000000 #\
b00000000000000000000000000000000 "{
b00000000000000000000000000000000 *
b00000000000000000000000000000000 ";
b00000000000000000000000000000000 C
b00000000000000000000000000000000 "Z
b00000000000000000000000000000000 #;
0S
b00000000000000000000000000000000 7
b00000000000000000000000000000000 "V
b00000000000000000000000000000000 #7
b00000000000000000000000000000000 #]
b00000000000000000000000000000000 "|
b00000 "O
b00000000000000000000000000000000 #+
b00000000000000000000000000000000 g
b00000000000000000000000000000000 "J
b00000000000000000000000000000000 R
b00000000000000000000000000000000 "-
b00000000000000000000000000000000 #Y
b00000000000000000000000000000000 "x
0"s
b00000000000000000000000000000000 #<
b00000000000000000000000000000000 x
b00000000000000000000000000000000 #'
b00000000000000000000000000000000 "[
b00000000000000000000000000000000 c
b00000000000000000000000000000000 ")
b00000000000000000000000000000000 1
0#e
b00000000000000000000000000000000 W
b00000000000000000000000000000000 %
b00000000000000000000000000000000 #:
b00000000000000000000000000000000 v
$end
#0
1r
1I
b00000000000000000000000000000001 H
1L
b00000000000000000000000000000010 "*
1"Y
15
1S
1#O
1G
b001 #Q
b00000000000000000000000000000001 #R
1"w
b00000000000000000000000000000110 #<
1N
1"/
b00001 #@
1#a
1:
1b
#1
1&
1#1
1#e
1"v
1"X
1@
1{
1"u
1#J
1"s
#6
0#e
0{
0#1
0"X
0#J
0&
0@
0"u
0"s
0"v
#11
1&
1#1
1#e
1"v
1"X
1@
1{
1"u
1#J
1"s
#16
0#e
0{
0#1
0"X
0#J
0&
0@
0"u
0"s
0"v
#21
1&
1#1
1#e
1"v
1"X
1@
1{
1"u
1#J
1"s
#26
0#e
0{
0#1
0"X
0#J
0&
0@
0"u
0"s
0"v
#31
1&
1#1
1#e
1"v
1"X
1@
1{
1"u
1#J
1"s
#36
0#e
0{
0#1
0"X
0#J
0&
0@
0"u
0"s
0"v
#41
1&
1#1
1#e
1"v
1"X
1@
1{
1"u
1#J
1"s
#46
0I
0#1
b00000000000000000000000000000011 ""
b00000000000000000000000000000011 "b
0&
0@
b00000000000000000000000000000011 "3
0"u
05
b00000000000000000000000000000011 /
0"Y
0#O
0"v
0"w
0#e
b00000000000000000000000000000011 #+
0#J
0r
b00000000000000000000000000000011 V
0{
0"X
0N
b00000000000000000000000000000011 d
0S
b00000000000000000000000000000011 #S
0L
0b
0"s
b00000000000000000000000000000011 v
#51
1#1
b00000000000000000000000000000001 #5
1@
b010 #Q
b00000000000000000000000000000011 Y
b00000000000000000000000000000001 #[
b00000000000000000000000000000001 "@
b00000000000000000000000000000011 "4
b00001 "O
1"X
b00000000000000000000000000000000 "3
b00000000000000000000000000000001 "2
b001 "B
b00000000000000000000000000000001 "-
b00000000000000000000000000000000 "b
b00010 #@
1{
b00000000000000000000000000000001 #_
1#J
1&
b00000000000000000000000000000001 Z
b00000000000000000000000000000011 m
1"u
1"s
b00000000000000000000000000000011 $
1#e
1"v
b001 "~
b00000000000000000000000000000011 #B
b00000000000000000000000000000001 #/
#56
b00000000000000000000000000000000 d
0{
0#1
0"X
0&
0@
0"u
b00000000000000000000000000000000 V
0"v
b00000000000000000000000000000000 #B
0#e
b00000000000000000000000000000000 ""
b00000000000000000000000000000000 $
0#J
b00000000000000000000000000000000 "4
b00000000000000000000000000000000 v
b00000000000000000000000000000000 Y
b00000000000000000000000000000000 #S
0"s
#61
1&
1#1
b00000000000000000000000000000010 Z
b00000000000000000000000000000010 "2
1@
b00000000000000000000000000000010 #[
b00000000000000000000000000000010 #_
1"u
1"s
1#e
1"v
1"X
b00000000000000000000000000000010 #5
b00011 #@
b00000000000000000000000000000011 "x
b00000000000000000000000000000010 "@
b00000000000000000000000000000010 #/
1{
b00010 "O
b00000000000000000000000000000010 "-
1#J
b010 "B
b010 "~
b011 #Q
#66
b00000000000000000000000000000010 #S
0#1
b00000000000000000000000000000100 #$
0&
0@
0"u
b00000000000000000000000000000010 ""
b00000000000000000000000000000100 "W
b00000000000000000000000000000010 d
b00000000000000000000000000000010 v
0"v
0#e
0#J
b00000000000000000000000000000010 V
b00000000000000000000000000000100 #:
0{
b00000000000000000000000000000100 "D
b00000000000000000000000000000100 "#
0"X
b00000000000000000000000000000010 "l
b00000000000000000000000000000100 #C
b00000000000000000000000000000100 \
b00000000000000000000000000000010 #?
b00000000000000000000000000000100 .
b00000000000000000000000000000010 0
b00000000000000000000000000000010 "9
b00000000000000000000000000000100 1
0"s
#71
1#1
b00000000000000000000000000000000 \
1@
b00000000000000000000000000000011 Z
b011 "B
b00000000000000000000000000000100 "0
b00000000000000000000000000000010 e
b00000000000000000000000000000011 _
1"X
1{
1#J
b00000000000000000000000000000011 #[
b00000000000000000000000000000011 #/
1&
b00000000000000000000000000000000 #?
b00000000000000000000000000000100 "q
b00000000000000000000000000000100 "i
b00000000000000000000000000000011 "2
b00000000000000000000000000000011 "-
b00100 #@
b00000000000000000000000000000000 "l
b011 "~
b00000000000000000000000000000011 #5
b00000000000000000000000000000100 #T
1"u
1"s
b00000000000000000000000000000011 "@
1#e
b00011 "O
1"v
b00000000000000000000000000000010 "h
b00000000000000000000000000000010 A
b00000000000000000000000000000010 "f
b00000000000000000000000000000000 #C
b00000000000000000000000000000011 #_
b00000000000000000000000000000010 ~
b00000000000000000000000000000100 #H
b100 #Q
#76
b00000000000000000000000000000011 "q
b00000000000000000000000000000011 "0
0{
0#1
b00000000000000000000000000000011 "W
0"X
b00000000000000000000000000000011 "D
0&
0@
0"u
b00000000000000000000000000000011 .
0"v
0#e
b00000000000000000000000000000011 "i
0#J
b00000000000000000000000000000011 #$
0"s
b00000000000000000000000000000011 #H
b00000000000000000000000000000011 "#
#81
1#1
1@
b00000000000000000000000000000010 `
b00000000000000000000000000000011 "K
b00000000000000000000000000000010 #V
b100 "B
b00000000000000000000000000000011 #K
b00000000000000000000000000000010 #(
1"X
b00000000000000000000000000000011 "<
b00000000000000000000000000000011 ,
b00000000000000000000000000000000 "i
b00000000000000000000000000000000 #H
b00000000000000000000000000000100 "@
b00000000000000000000000000000100 #_
b00000000000000000000000000000011 "E
1{
b00000000000000000000000000000100 Z
b00101 #@
b101 #Q
1#J
b00000000000000000000000000000011 j
b00000000000000000000000000000010 [
1&
b00000000000000000000000000000100 "-
b100 "~
b00000000000000000000000000000100 #[
b00000000000000000000000000000000 e
1"u
b00000000000000000000000000000100 "2
1"s
b00100 "O
b00000000000000000000000000000100 #5
b00000000000000000000000000000100 #/
1#e
1"v
b00000000000000000000000000000000 "h
b00000000000000000000000000000010 #\
#86
0#1
b00000000000000000000000000000001 "<
b00000000000000000000000000000001 "#
0&
0@
0"u
b00000000000000000000000000000001 "E
b00000000000000000000000000000001 ,
b00000000000000000000000000000001 #(
0"v
0#e
b00000000000000000000000000000001 `
0#J
b00000000000000000000000000000001 "W
b00000000000000000000000000000001 j
b00000000000000000000000000000001 v
0{
b00000000000000000000000000000001 #S
b00000000000000000000000000000001 d
0"X
b00000000000000000000000000000001 "D
b00000000000000000000000000000001 V
b00000000000000000000000000000001 #V
b00000000000000000000000000000001 #\
b00000000000000000000000000000001 .
b00000000000000000000000000000001 #$
b00000000000000000000000000000001 ""
0"s
#91
1#1
b101 "~
b00000000000000000000000000000101 "-
1@
b00000000000000000000000000000000 j
b00101 "O
b110 #Q
b00000000000000000000000000000001 #>
b00000000000000000000000000000101 #5
b00000000000000000000000000000001 #N
1"X
b00000000000000000000000000000001 "[
b00000000000000000000000000000000 #V
b00000000000000000000000000000001 7
b101 "B
b00000000000000000000000000000101 "@
b00000000000000000000000000000001 "$
b00000000000000000000000000000001 P
1{
1#J
b00000000000000000000000000000000 "<
b00000000000000000000000000000001 "}
1&
b00110 #@
b00000000000000000000000000000101 #[
b00000000000000000000000000000000 `
b00000000000000000000000000000101 #_
b00000000000000000000000000000001 #G
1"u
b00000000000000000000000000000011 "L
1"s
b00000000000000000000000000000101 "2
b00000000000000000000000000000001 4
1#e
b00000000000000000000000000000001 #Z
1"v
b00000000000000000000000000000101 #/
b00000000000000000000000000000101 Z
#96
b00000000000000000000000000000011 V
0{
0#1
b00000000000000000000000000000011 "$
b00000000000000000000000000000011 ""
0"X
0&
0@
b00000000000000000000000000000011 "[
0"u
b00000000000000000000000000000011 d
b00000000000000000000000000000011 #S
0"v
0#e
0#J
b00000000000000000000000000000011 #Z
b00000000000000000000000000000011 "}
0"s
b00000000000000000000000000000011 v
#101
1#1
1#P
b00000000000000000000000000000000 #N
b00000000000000000000000000000011 "j
1@
b00000000000000000000000000000011 "Q
b00000000000000000000000000000001 ##
b00000000000000000000000000000110 #5
b00000000000000000000000000000110 "@
b00000000000000000000000000000110 Z
b00000000000000000000000000000001 #b
b00000000000000000000000000000110 #_
1"X
b00000000000000000000000000000110 "-
b00000000000000000000000000000110 #/
b000 #Q
b00000000000000000000000000000001 "U
b00000000000000000000000000000000 7
b00110 "O
b00000000000000000000000000000000 "}
1{
b00000000000000000000000000000110 "2
b00000000000000000000000000000011 x
1#J
b00111 #@
1&
b00000000000000000000000000000011 s
b00000000000000000000000000000001 #X
b00000000000000000000000000000011 J
b00000000000000000000000000000011 W
1#-
1"u
1"s
b00000000000000000000000000000001 "=
1#e
1"v
b00000000000000000000000000000110 #[
b00000000000000000000000000000000 #Z
b110 "~
b110 "B
#106
b00000000000000000000000000000010 #S
b00000000000000000000000000000010 "Q
0{
0#1
0"X
0&
0@
0"u
b00000000000000000000000000000010 ""
b00000000000000000000000000000010 d
b00000000000000000000000000000010 v
0"v
0#e
0#J
b00000000000000000000000000000010 J
b00000000000000000000000000000010 W
b00000000000000000000000000000010 s
0"s
b00000000000000000000000000000010 V
#111
1#1
b00000000000000000000000000000000 Z
b00000000000000000000000000000000 #/
b00000000000000000000000000000011 ?
b00000000000000000000000000000001 #0
1@
b01000 #@
0#P
b00001 "_
b00000000000000000000000000000010 "3
b000 "~
b00000000000000000000000000000000 "2
b000 "B
1"X
b00000000000000000000000000000000 #5
b00000000000000000000000000000011 #)
b00000000000000000000000000000000 #_
b00000000000000000000000000000000 "Q
b00000000000000000000000000000000 "@
b00000000000000000000000000000010 D
1{
b00000000000000000000000000000001 "Z
1#J
b00000000000000000000000000000001 "V
b00000000000000000000000000000000 s
b00000000000000000000000000000010 "b
1&
b00000000000000000000000000000001 "c
b00000000000000000000000000000001 "e
b00000000000000000000000000000010 k
b00000000000000000000000000000001 #,
b00000000000000000000000000000000 #[
1"u
b00111 "O
0#-
1"s
1"n
b001 #Q
1#e
1"v
b00000000000000000000000000000000 "-
b00000000000000000000000000000000 #X
b00000000000000000000000000000010 /
0#a
1z
0"/
b00000000000000000000000000000000 "U
b00000000000000000000000000000001 "J
#116
b00000000000000000000000000000000 d
0#1
0&
0@
0"u
b00000000000000000000000000000000 D
b00000000000000000000000000000011 #0
b00000000000000000000000000000011 .
0"v
0#e
0#J
b00000000000000000000000000000011 #$
b00000000000000000000000000000000 "3
b00000000000000000000000000000000 v
b00000000000000000000000000000000 #S
b00000000000000000000000000000000 "b
b00000000000000000000000000000011 #,
b00000000000000000000000000000011 "V
0{
b00000000000000000000000000000011 "W
0"X
b00000000000000000000000000000011 "D
b00000000000000000000000000000000 V
b00000000000000000000000000000011 "e
b00000000000000000000000000000000 ""
b00000000000000000000000000000000 /
0"s
b00000000000000000000000000000011 "#
#121
b01001 #@
1#1
b00000000000000000000000000000001 #5
b00000000000000000000000000000000 _
b00000000000000000000000000000000 x
1@
b00000000000000000000000000000011 /
b010 #Q
b00000000000000000000000000000001 #[
b00000000000000000000000000000001 "@
1"X
b00000000000000000000000000000011 ".
b01000 "O
b00000000000000000000000000000001 "2
b001 "B
b00000000000000000000000000000000 "x
b00000000000000000000000000000011 K
b00000000000000000000000000000001 "-
1{
b00000000000000000000000000000011 "&
b00000000000000000000000000000001 #_
1#J
b00000000000000000000000000000000 #,
1&
b00000000000000000000000000000000 #K
b00000000000000000000000000000001 Z
b00000000000000000000000000000000 "e
b00000000000000000000000000000000 "L
1"u
1"s
b00000000000000000000000000000000 ?
b00000000000000000000000000000011 U
1#e
1"v
b001 "~
b00000000000000000000000000000011 #d
b00000000000000000000000000000000 #)
b00000000000000000000000000000001 #/
#126
b00000000000000000000000000000011 V
0{
0#1
b00000000000000000000000000000011 ""
0"X
0&
0@
0"u
b00000000000000000000000000000011 Y
b00000000000000000000000000000011 d
b00000000000000000000000000000011 #S
0"v
b00000000000000000000000000000011 $
0#e
0#J
b00000000000000000000000000000011 #`
0"s
b00000000000000000000000000000011 #B
b00000000000000000000000000000011 v
